<?xml version="1.0" encoding="UTF-8"?>
<!DOCTYPE svg PUBLIC "-//W3C//DTD SVG 1.1//EN" "http://www.w3.org/Graphics/SVG/1.1/DTD/svg11.dtd">
<!-- Creator: CorelDRAW X8 -->
<svg xmlns="http://www.w3.org/2000/svg" xml:space="preserve" width="18.3885cm" height="12.0385cm" version="1.1" style="shape-rendering:geometricPrecision; text-rendering:geometricPrecision; image-rendering:optimizeQuality; fill-rule:evenodd; clip-rule:evenodd"
viewBox="0 0 18389 12039"
 xmlns:xlink="http://www.w3.org/1999/xlink">
 <defs>
  <style type="text/css">
   <![CDATA[
    .fil2 {fill:#5E748F}
    .fil0 {fill:#67809E}
    .fil3 {fill:#9ADBED}
    .fil7 {fill:#A68C58}
    .fil5 {fill:#BFA673}
    .fil6 {fill:#CCB380}
    .fil4 {fill:#DDCB90}
    .fil1 {fill:#F0F0F0}
   ]]>
  </style>
 </defs>
 <g id="Capa_x0020_1">
  <metadata id="CorelCorpID_0Corel-Layer"/>
  <polygon class="fil0" points="423,9049 18262,9049 18262,8714 17208,7050 423,7050 "/>
  <path class="fil0" d="M3878 9238c774,0 1401,627 1401,1401 0,773 -627,1400 -1401,1400 -773,0 -1400,-627 -1400,-1400 0,-774 627,-1401 1400,-1401z"/>
  <path class="fil1" d="M3878 9790c469,0 849,380 849,849 0,469 -380,849 -849,849 -469,0 -849,-380 -849,-849 0,-469 380,-849 849,-849z"/>
  <path class="fil0" d="M423 10943l1895 0c-19,-99 -30,-200 -30,-304 0,-878 712,-1590 1590,-1590 878,0 1590,712 1590,1590 0,104 -10,205 -29,304l9037 0c-19,-99 -29,-200 -29,-304 0,-878 712,-1590 1590,-1590 878,0 1590,712 1590,1590 0,104 -10,205 -29,304l664 0 0 -2229 -17839 0 0 2229z"/>
  <path class="fil0" d="M16037 9238c774,0 1401,627 1401,1401 0,773 -627,1400 -1401,1400 -773,0 -1401,-627 -1401,-1400 0,-774 628,-1401 1401,-1401z"/>
  <path class="fil1" d="M16037 9790c469,0 849,380 849,849 0,469 -380,849 -849,849 -469,0 -849,-380 -849,-849 0,-469 380,-849 849,-849z"/>
  <polygon class="fil2" points="18262,8714 17788,7965 423,7965 423,8714 "/>
  <path class="fil0" d="M14353 2546l3234 5102 -421 0 -2813 0 0 -601 2188 0 -2188 -3451 0 -1050zm-2791 -102l0 0 294 0 68 0 2376 0 0 19 53 83 0 1050 -370 -583 -1818 0 0 4034 2188 0 0 601 -2791 0 0 -19 0 -417 0 -4768z"/>
  <polygon class="fil3" points="12165,3013 12165,7047 17208,7047 14649,3013 "/>
  <path class="fil0" d="M96 10207l1895 0c-19,-99 -30,-200 -30,-304 0,-296 81,-573 222,-811l-2087 0 0 1115zm4823 -1115l0 0c141,238 222,515 222,811 0,104 -10,205 -29,304l9037 0c-19,-99 -29,-200 -29,-304 0,-296 81,-573 222,-811l-9423 0zm12159 0l0 0c141,238 222,515 222,811 0,104 -10,205 -29,304l664 0 0 -1115 -857 0z"/>
  <g id="_2522026173088">
   <polygon class="fil4" points="7758,4076 11393,4076 11393,7074 7758,7074 "/>
   <polygon class="fil5" points="7663,4188 11490,4188 11490,3651 7663,3651 "/>
   <polygon class="fil6" points="11393,4383 9000,7074 7758,7074 7758,4188 11393,4188 "/>
   <polygon class="fil7" points="10696,4383 11106,4383 11106,3651 10696,3651 "/>
   <polygon class="fil7" points="8031,4383 8441,4383 8441,3651 8031,3651 "/>
  </g>
  <g id="_2522026165888">
   <polygon class="fil4" points="4161,4076 7796,4076 7796,7074 4161,7074 "/>
   <polygon class="fil5" points="4066,4188 7893,4188 7893,3651 4066,3651 "/>
   <polygon class="fil6" points="7796,4383 5403,7074 4161,7074 4161,4188 7796,4188 "/>
   <polygon class="fil7" points="7099,4383 7509,4383 7509,3651 7099,3651 "/>
   <polygon class="fil7" points="4434,4383 4844,4383 4844,3651 4434,3651 "/>
  </g>
  <g id="_2522026163200">
   <polygon class="fil4" points="518,4076 4153,4076 4153,7074 518,7074 "/>
   <polygon class="fil5" points="423,4188 4250,4188 4250,3651 423,3651 "/>
   <polygon class="fil6" points="4153,4383 1760,7074 518,7074 518,4188 4153,4188 "/>
   <polygon class="fil7" points="3456,4383 3866,4383 3866,3651 3456,3651 "/>
   <polygon class="fil7" points="791,4383 1201,4383 1201,3651 791,3651 "/>
  </g>
  <g id="_2522026217984">
   <polygon class="fil4" points="7758,642 11393,642 11393,3641 7758,3641 "/>
   <polygon class="fil5" points="7663,754 11490,754 11490,217 7663,217 "/>
   <polygon class="fil6" points="11393,949 9000,3641 7758,3641 7758,754 11393,754 "/>
   <polygon class="fil7" points="10696,949 11106,949 11106,217 10696,217 "/>
   <polygon class="fil7" points="8031,949 8441,949 8441,217 8031,217 "/>
  </g>
  <g id="_2522026203552">
   <polygon class="fil4" points="4161,642 7796,642 7796,3641 4161,3641 "/>
   <polygon class="fil5" points="4066,754 7893,754 7893,217 4066,217 "/>
   <polygon class="fil6" points="7796,949 5403,3641 4161,3641 4161,754 7796,754 "/>
   <polygon class="fil7" points="7099,949 7509,949 7509,217 7099,217 "/>
   <polygon class="fil7" points="4434,949 4844,949 4844,217 4434,217 "/>
  </g>
 </g>
</svg>
