<?xml version="1.0" encoding="UTF-8"?>
<!DOCTYPE svg PUBLIC "-//W3C//DTD SVG 1.1//EN" "http://www.w3.org/Graphics/SVG/1.1/DTD/svg11.dtd">
<!-- Creator: CorelDRAW X8 -->
<svg xmlns="http://www.w3.org/2000/svg" xml:space="preserve" width="41cm" height="13cm" version="1.1" style="shape-rendering:geometricPrecision; text-rendering:geometricPrecision; image-rendering:optimizeQuality; fill-rule:evenodd; clip-rule:evenodd"
viewBox="0 0 41000 13000"
 xmlns:xlink="http://www.w3.org/1999/xlink">
 <defs>
  <style type="text/css">
   <![CDATA[
    .fil4 {fill:#3C4553}
    .fil5 {fill:#55687F}
    .fil7 {fill:#A68C58}
    .fil3 {fill:#A68C58}
    .fil6 {fill:#BFA673}
    .fil1 {fill:#BFA673}
    .fil2 {fill:#CCB380}
    .fil0 {fill:#DDCB90}
   ]]>
  </style>
 </defs>
 <g id="Capa_x0020_1">
  <metadata id="CorelCorpID_0Corel-Layer"/>
  <g id="_2125003800992">
   <polygon class="fil0" points="8750,11302 6692,11302 6692,13000 8750,13000 "/>
   <polygon class="fil1" points="8803,11366 6637,11366 6637,11062 8803,11062 "/>
   <polygon class="fil2" points="6692,11476 8046,13000 8750,13000 8750,11366 6692,11366 "/>
   <polygon class="fil3" points="7086,11476 6854,11476 6854,11062 7086,11062 "/>
   <polygon class="fil3" points="8595,11476 8363,11476 8363,11062 8595,11062 "/>
  </g>
  <g id="_2125003800128">
   <polygon class="fil0" points="6567,11302 4509,11302 4509,13000 6567,13000 "/>
   <polygon class="fil1" points="6620,11366 4455,11366 4455,11062 6620,11062 "/>
   <polygon class="fil2" points="4509,11476 5863,13000 6567,13000 6567,11366 4509,11366 "/>
   <polygon class="fil3" points="4903,11476 4671,11476 4671,11062 4903,11062 "/>
   <polygon class="fil3" points="6412,11476 6180,11476 6180,11062 6412,11062 "/>
  </g>
  <g id="_2125003798656">
   <polygon class="fil0" points="4395,11302 2337,11302 2337,13000 4395,13000 "/>
   <polygon class="fil1" points="4448,11366 2282,11366 2282,11062 4448,11062 "/>
   <polygon class="fil2" points="2337,11476 3691,13000 4395,13000 4395,11366 2337,11366 "/>
   <polygon class="fil3" points="2731,11476 2499,11476 2499,11062 2731,11062 "/>
   <polygon class="fil3" points="4240,11476 4008,11476 4008,11062 4240,11062 "/>
  </g>
  <polygon class="fil0" points="2212,11302 154,11302 154,13000 2212,13000 "/>
  <polygon class="fil1" points="2265,11366 99,11366 99,11062 2265,11062 "/>
  <polygon class="fil2" points="154,11476 1508,13000 2212,13000 2212,11366 154,11366 "/>
  <polygon class="fil3" points="548,11476 316,11476 316,11062 548,11062 "/>
  <polygon class="fil3" points="2057,11476 1825,11476 1825,11062 2057,11062 "/>
  <polygon class="fil0" points="8750,9359 6692,9359 6692,11057 8750,11057 "/>
  <polygon class="fil1" points="8803,9423 6637,9423 6637,9119 8803,9119 "/>
  <polygon class="fil2" points="6692,9533 8046,11057 8750,11057 8750,9423 6692,9423 "/>
  <polygon class="fil3" points="7086,9533 6854,9533 6854,9119 7086,9119 "/>
  <polygon class="fil3" points="8595,9533 8363,9533 8363,9119 8595,9119 "/>
  <g id="_2125003792032">
   <polygon class="fil0" points="6567,9359 4509,9359 4509,11057 6567,11057 "/>
   <polygon class="fil1" points="6620,9423 4455,9423 4455,9119 6620,9119 "/>
   <polygon class="fil2" points="4509,9533 5863,11057 6567,11057 6567,9423 4509,9423 "/>
   <polygon class="fil3" points="4903,9533 4671,9533 4671,9119 4903,9119 "/>
   <polygon class="fil3" points="6412,9533 6180,9533 6180,9119 6412,9119 "/>
  </g>
  <g id="_2125003790208">
   <polygon class="fil0" points="40826,11302 38768,11302 38768,13000 40826,13000 "/>
   <polygon class="fil1" points="40879,11366 38713,11366 38713,11062 40879,11062 "/>
   <polygon class="fil2" points="38768,11476 40122,13000 40826,13000 40826,11366 38768,11366 "/>
   <polygon class="fil3" points="39162,11476 38930,11476 38930,11062 39162,11062 "/>
   <polygon class="fil3" points="40671,11476 40439,11476 40439,11062 40671,11062 "/>
  </g>
  <g id="_2125003818720">
   <polygon class="fil0" points="38643,11302 36585,11302 36585,13000 38643,13000 "/>
   <polygon class="fil1" points="38696,11366 36530,11366 36530,11062 38696,11062 "/>
   <polygon class="fil2" points="36585,11476 37939,13000 38643,13000 38643,11366 36585,11366 "/>
   <polygon class="fil3" points="36979,11476 36747,11476 36747,11062 36979,11062 "/>
   <polygon class="fil3" points="38488,11476 38256,11476 38256,11062 38488,11062 "/>
  </g>
  <g id="_2125003813664">
   <polygon class="fil0" points="36470,11302 34412,11302 34412,13000 36470,13000 "/>
   <polygon class="fil1" points="36523,11366 34357,11366 34357,11062 36523,11062 "/>
   <polygon class="fil2" points="34412,11476 35766,13000 36470,13000 36470,11366 34412,11366 "/>
   <polygon class="fil3" points="34806,11476 34574,11476 34574,11062 34806,11062 "/>
   <polygon class="fil3" points="36315,11476 36083,11476 36083,11062 36315,11062 "/>
  </g>
  <polygon class="fil0" points="34287,11302 32229,11302 32229,13000 34287,13000 "/>
  <polygon class="fil1" points="34340,11366 32174,11366 32174,11062 34340,11062 "/>
  <polygon class="fil2" points="32229,11476 33583,13000 34287,13000 34287,11366 32229,11366 "/>
  <polygon class="fil3" points="32623,11476 32391,11476 32391,11062 32623,11062 "/>
  <polygon class="fil3" points="34132,11476 33900,11476 33900,11062 34132,11062 "/>
  <g id="_2125084638480">
   <polygon class="fil0" points="40826,9359 38768,9359 38768,11057 40826,11057 "/>
   <polygon class="fil1" points="40879,9423 38713,9423 38713,9119 40879,9119 "/>
   <g>
    <polygon class="fil2" points="38768,9533 40122,11057 40826,11057 40826,9423 38768,9423 "/>
    <polygon class="fil3" points="39162,9533 38930,9533 38930,9119 39162,9119 "/>
    <polygon class="fil3" points="40671,9533 40439,9533 40439,9119 40671,9119 "/>
   </g>
  </g>
  <polygon class="fil4" points="12154,13000 11451,13000 11451,756 12154,756 "/>
  <polygon class="fil4" points="20835,13000 20133,13000 20133,756 20835,756 "/>
  <polygon class="fil4" points="29549,13000 28846,13000 28846,756 29549,756 "/>
  <polygon class="fil4" points="28828,2693 20849,2693 20849,2026 28828,2026 "/>
  <polygon class="fil5" points="21066,1888 20849,1888 20849,2026 21066,2026 "/>
  <polygon class="fil5" points="21540,2839 20849,2839 20849,2693 21540,2693 "/>
  <polygon class="fil5" points="20727,2839 20849,2839 20849,1888 20727,1888 "/>
  <polygon class="fil5" points="28633,1888 28850,1888 28850,2026 28633,2026 "/>
  <polygon class="fil5" points="28159,2839 28850,2839 28850,2693 28159,2693 "/>
  <polygon class="fil5" points="28972,2839 28850,2839 28850,1888 28972,1888 "/>
  <polygon class="fil4" points="28828,5839 20849,5839 20849,5173 28828,5173 "/>
  <polygon class="fil5" points="21066,5034 20849,5034 20849,5173 21066,5173 "/>
  <polygon class="fil5" points="21540,5985 20849,5985 20849,5839 21540,5839 "/>
  <polygon class="fil5" points="20727,5985 20849,5985 20849,5034 20727,5034 "/>
  <polygon class="fil5" points="28633,5034 28850,5034 28850,5173 28633,5173 "/>
  <polygon class="fil5" points="28159,5985 28850,5985 28850,5839 28159,5839 "/>
  <polygon class="fil5" points="28972,5985 28850,5985 28850,5034 28972,5034 "/>
  <polygon class="fil4" points="28828,9094 20849,9094 20849,8427 28828,8427 "/>
  <polygon class="fil5" points="21066,8288 20849,8288 20849,8427 21066,8427 "/>
  <polygon class="fil5" points="21540,9239 20849,9239 20849,9094 21540,9094 "/>
  <polygon class="fil5" points="20727,9239 20849,9239 20849,8288 20727,8288 "/>
  <polygon class="fil5" points="28633,8288 28850,8288 28850,8427 28633,8427 "/>
  <polygon class="fil5" points="28159,9239 28850,9239 28850,9094 28159,9094 "/>
  <polygon class="fil5" points="28972,9239 28850,9239 28850,8288 28972,8288 "/>
  <polygon class="fil4" points="28828,12272 20849,12272 20849,11606 28828,11606 "/>
  <polygon class="fil5" points="21066,11467 20849,11467 20849,11606 21066,11606 "/>
  <polygon class="fil5" points="21540,12418 20849,12418 20849,12272 21540,12272 "/>
  <polygon class="fil5" points="20727,12418 20849,12418 20849,11467 20727,11467 "/>
  <polygon class="fil5" points="28633,11467 28850,11467 28850,11606 28633,11606 "/>
  <polygon class="fil5" points="28159,12418 28850,12418 28850,12272 28159,12272 "/>
  <polygon class="fil5" points="28972,12418 28850,12418 28850,11467 28972,11467 "/>
  <polygon class="fil4" points="20144,2693 12165,2693 12165,2026 20144,2026 "/>
  <polygon class="fil5" points="12382,1888 12165,1888 12165,2026 12382,2026 "/>
  <polygon class="fil5" points="12856,2839 12165,2839 12165,2693 12856,2693 "/>
  <polygon class="fil5" points="12042,2839 12165,2839 12165,1888 12042,1888 "/>
  <polygon class="fil5" points="19949,1888 20165,1888 20165,2026 19949,2026 "/>
  <polygon class="fil5" points="19475,2839 20165,2839 20165,2693 19475,2693 "/>
  <polygon class="fil5" points="20288,2839 20165,2839 20165,1888 20288,1888 "/>
  <polygon class="fil4" points="20144,5839 12165,5839 12165,5173 20144,5173 "/>
  <polygon class="fil5" points="12382,5034 12165,5034 12165,5173 12382,5173 "/>
  <polygon class="fil5" points="12856,5985 12165,5985 12165,5839 12856,5839 "/>
  <polygon class="fil5" points="12042,5985 12165,5985 12165,5034 12042,5034 "/>
  <polygon class="fil5" points="19949,5034 20165,5034 20165,5173 19949,5173 "/>
  <polygon class="fil5" points="19475,5985 20165,5985 20165,5839 19475,5839 "/>
  <polygon class="fil5" points="20288,5985 20165,5985 20165,5034 20288,5034 "/>
  <polygon class="fil4" points="20144,9094 12165,9094 12165,8427 20144,8427 "/>
  <polygon class="fil5" points="12382,8288 12165,8288 12165,8427 12382,8427 "/>
  <polygon class="fil5" points="12856,9239 12165,9239 12165,9094 12856,9094 "/>
  <polygon class="fil5" points="12042,9239 12165,9239 12165,8288 12042,8288 "/>
  <polygon class="fil5" points="19949,8288 20165,8288 20165,8427 19949,8427 "/>
  <polygon class="fil5" points="19475,9239 20165,9239 20165,9094 19475,9094 "/>
  <polygon class="fil5" points="20288,9239 20165,9239 20165,8288 20288,8288 "/>
  <polygon class="fil4" points="20144,12272 12165,12272 12165,11606 20144,11606 "/>
  <polygon class="fil5" points="12382,11467 12165,11467 12165,11606 12382,11606 "/>
  <polygon class="fil5" points="12856,12418 12165,12418 12165,12272 12856,12272 "/>
  <polygon class="fil5" points="12042,12418 12165,12418 12165,11467 12042,11467 "/>
  <polygon class="fil5" points="19949,11467 20165,11467 20165,11606 19949,11606 "/>
  <polygon class="fil5" points="19475,12418 20165,12418 20165,12272 19475,12272 "/>
  <polygon class="fil5" points="20288,12418 20165,12418 20165,11467 20288,11467 "/>
  <g id="_2125084660624">
   <g>
    <polygon class="fil0" points="15921,3475 13863,3475 13863,5173 15921,5173 "/>
    <polygon class="fil1" points="15974,3539 13808,3539 13808,3235 15974,3235 "/>
    <polygon class="fil2" points="13863,3649 15217,5173 15921,5173 15921,3539 13863,3539 "/>
    <polygon class="fil3" points="14257,3649 14025,3649 14025,3235 14257,3235 "/>
   </g>
   <polygon class="fil3" points="15766,3649 15534,3649 15534,3235 15766,3235 "/>
  </g>
  <polygon class="fil0" points="18383,3475 16326,3475 16326,5173 18383,5173 "/>
  <polygon class="fil1" points="18437,3539 16271,3539 16271,3235 18437,3235 "/>
  <polygon class="fil2" points="16326,3649 17680,5173 18383,5173 18383,3539 16326,3539 "/>
  <polygon class="fil3" points="16720,3649 16488,3649 16488,3235 16720,3235 "/>
  <polygon class="fil3" points="18229,3649 17997,3649 17997,3235 18229,3235 "/>
  <polygon class="fil0" points="14892,9795 12700,9795 12700,11604 14892,11604 "/>
  <polygon class="fil6" points="14950,9863 12642,9863 12642,9539 14950,9539 "/>
  <polygon class="fil2" points="12700,9981 14143,11604 14892,11604 14892,9863 12700,9863 "/>
  <polygon class="fil7" points="13120,9981 12873,9981 12873,9539 13120,9539 "/>
  <polygon class="fil7" points="14728,9981 14481,9981 14481,9539 14728,9539 "/>
  <polygon class="fil0" points="17300,9795 15108,9795 15108,11604 17300,11604 "/>
  <polygon class="fil1" points="17357,9863 15050,9863 15050,9539 17357,9539 "/>
  <polygon class="fil2" points="15108,9981 16551,11604 17300,11604 17300,9863 15108,9863 "/>
  <polygon class="fil7" points="15528,9981 15281,9981 15281,9539 15528,9539 "/>
  <polygon class="fil7" points="17136,9981 16888,9981 16888,9539 17136,9539 "/>
  <polygon class="fil0" points="19777,9797 17585,9797 17585,11606 19777,11606 "/>
  <polygon class="fil1" points="19834,9865 17526,9865 17526,9541 19834,9541 "/>
  <polygon class="fil2" points="17585,9983 19027,11606 19777,11606 19777,9865 17585,9865 "/>
  <polygon class="fil7" points="18005,9983 17757,9983 17757,9541 18005,9541 "/>
  <polygon class="fil7" points="19612,9983 19365,9983 19365,9541 19612,9541 "/>
  <polygon class="fil0" points="24078,3364 21886,3364 21886,5173 24078,5173 "/>
  <polygon class="fil1" points="24136,3432 21827,3432 21827,3108 24136,3108 "/>
  <polygon class="fil2" points="21886,3549 23329,5173 24078,5173 24078,3432 21886,3432 "/>
  <polygon class="fil3" points="22306,3549 22059,3549 22059,3108 22306,3108 "/>
  <polygon class="fil3" points="23914,3549 23666,3549 23666,3108 23914,3108 "/>
  <polygon class="fil0" points="23816,6618 21623,6618 21623,8427 23816,8427 "/>
  <polygon class="fil1" points="23873,6686 21565,6686 21565,6362 23873,6362 "/>
  <polygon class="fil2" points="21623,6804 23066,8427 23816,8427 23816,6686 21623,6686 "/>
  <polygon class="fil3" points="22044,6804 21796,6804 21796,6362 22044,6362 "/>
  <polygon class="fil3" points="23652,6804 23404,6804 23404,6362 23652,6362 "/>
  <polygon class="fil0" points="25922,3824 24288,3824 24288,5173 25922,5173 "/>
  <polygon class="fil1" points="25965,3875 24244,3875 24244,3633 25965,3633 "/>
  <polygon class="fil2" points="24288,3963 25363,5173 25922,5173 25922,3875 24288,3875 "/>
  <polygon class="fil3" points="24601,3963 24417,3963 24417,3633 24601,3633 "/>
  <polygon class="fil3" points="25799,3963 25615,3963 25615,3633 25799,3633 "/>
  <polygon class="fil0" points="27774,3824 26140,3824 26140,5173 27774,5173 "/>
  <polygon class="fil1" points="27817,3875 26097,3875 26097,3633 27817,3633 "/>
  <polygon class="fil1" points="26140,3963 27216,5173 27774,5173 27774,3875 26140,3875 "/>
  <polygon class="fil3" points="26453,3963 26269,3963 26269,3633 26453,3633 "/>
  <polygon class="fil3" points="27652,3963 27468,3963 27468,3633 27652,3633 "/>
  <polygon class="fil0" points="14856,8427 12510,8427 12510,6290 14856,6290 "/>
  <path class="fil2" d="M14012 6292c0,175 -142,317 -318,317 -175,0 -318,-142 -318,-317l636 0 0 0z"/>
  <polygon class="fil0" points="17347,8427 15001,8427 15001,6290 17347,6290 "/>
  <path class="fil2" d="M16503 6292c0,175 -142,317 -318,317 -175,0 -318,-142 -318,-317l636 0 0 0z"/>
  <polygon class="fil0" points="19868,8427 17522,8427 17522,6290 19868,6290 "/>
  <path class="fil2" d="M19024 6292c0,175 -142,317 -318,317 -175,0 -318,-142 -318,-317l636 0 0 0z"/>
  <polygon class="fil0" points="23506,11606 21160,11606 21160,9469 23506,9469 "/>
  <path class="fil2" d="M22661 9470c0,176 -142,318 -318,318 -175,0 -317,-142 -317,-318l635 0 0 0z"/>
  <polygon class="fil0" points="25997,11606 23651,11606 23651,9469 25997,9469 "/>
  <path class="fil2" d="M25152 9470c0,176 -142,318 -318,318 -175,0 -317,-142 -317,-318l635 0 0 0z"/>
  <polygon class="fil0" points="28518,11606 26172,11606 26172,9469 28518,9469 "/>
  <path class="fil2" d="M27673 9470c0,176 -142,318 -318,318 -175,0 -317,-142 -317,-318l635 0 0 0z"/>
  <polygon class="fil0" points="26108,8427 24408,8427 24408,6878 26108,6878 "/>
  <path class="fil2" d="M25496 6879c0,128 -103,231 -230,231 -127,0 -230,-103 -230,-231l460 0 0 0z"/>
  <polygon class="fil0" points="27935,8427 26235,8427 26235,6878 27935,6878 "/>
  <path class="fil2" d="M27323 6879c0,128 -103,231 -230,231 -127,0 -230,-103 -230,-231l460 0 0 0z"/>
  <g id="_2125002784752">
   <g>
    <polygon class="fil0" points="15921,332 13863,332 13863,2030 15921,2030 "/>
    <polygon class="fil1" points="15974,396 13808,396 13808,92 15974,92 "/>
    <polygon class="fil2" points="13863,506 15217,2030 15921,2030 15921,396 13863,396 "/>
    <polygon class="fil3" points="14257,506 14025,506 14025,92 14257,92 "/>
   </g>
   <polygon class="fil3" points="15766,506 15534,506 15534,92 15766,92 "/>
  </g>
  <g id="_2125002782960">
   <polygon class="fil0" points="4380,9359 2322,9359 2322,11057 4380,11057 "/>
   <polygon class="fil1" points="4433,9423 2267,9423 2267,9119 4433,9119 "/>
   <polygon class="fil2" points="2322,9533 3676,11057 4380,11057 4380,9423 2322,9423 "/>
   <polygon class="fil3" points="2716,9533 2484,9533 2484,9119 2716,9119 "/>
   <polygon class="fil3" points="4225,9533 3993,9533 3993,9119 4225,9119 "/>
  </g>
  <g id="_2125002779152">
   <polygon class="fil0" points="38622,9359 36564,9359 36564,11057 38622,11057 "/>
   <polygon class="fil1" points="38675,9423 36509,9423 36509,9119 38675,9119 "/>
   <g>
    <polygon class="fil2" points="36564,9533 37918,11057 38622,11057 38622,9423 36564,9423 "/>
    <polygon class="fil3" points="36958,9533 36726,9533 36726,9119 36958,9119 "/>
    <polygon class="fil3" points="38467,9533 38235,9533 38235,9119 38467,9119 "/>
   </g>
  </g>
  <g id="_2125002778448">
   <polygon class="fil0" points="8797,7408 6739,7408 6739,9106 8797,9106 "/>
   <polygon class="fil1" points="8850,7472 6684,7472 6684,7168 8850,7168 "/>
   <polygon class="fil2" points="6739,7582 8093,9106 8797,9106 8797,7472 6739,7472 "/>
   <polygon class="fil3" points="7133,7582 6901,7582 6901,7168 7133,7168 "/>
   <polygon class="fil3" points="8642,7582 8410,7582 8410,7168 8642,7168 "/>
  </g>
  <g id="_2125002773936">
   <g>
    <polygon class="fil0" points="19267,332 17209,332 17209,2030 19267,2030 "/>
    <polygon class="fil1" points="19320,396 17154,396 17154,92 19320,92 "/>
    <polygon class="fil2" points="17209,506 18563,2030 19267,2030 19267,396 17209,396 "/>
    <polygon class="fil3" points="17603,506 17371,506 17371,92 17603,92 "/>
   </g>
   <polygon class="fil3" points="19112,506 18880,506 18880,92 19112,92 "/>
  </g>
 </g>
</svg>
