<?xml version="1.0" encoding="UTF-8"?>
<!DOCTYPE svg PUBLIC "-//W3C//DTD SVG 1.1//EN" "http://www.w3.org/Graphics/SVG/1.1/DTD/svg11.dtd">
<!-- Creator: CorelDRAW X8 -->
<svg xmlns="http://www.w3.org/2000/svg" xml:space="preserve" width="2.6458mm" height="2.6458mm" version="1.1" style="shape-rendering:geometricPrecision; text-rendering:geometricPrecision; image-rendering:optimizeQuality; fill-rule:evenodd; clip-rule:evenodd"
viewBox="0 0 265 265"
 xmlns:xlink="http://www.w3.org/1999/xlink">
 <defs>
  <font id="FontID0" horiz-adv-x="667" font-variant="normal" style="fill-rule:nonzero" font-weight="400">
	<font-face 
		font-family="Arial">
		<font-face-src>
			<font-face-name name="Arial"/>
		</font-face-src>
	</font-face>
   <missing-glyph><path d="M0 0z"/></missing-glyph>
   <glyph unicode="!" horiz-adv-x="277" d="M113.007 178.011l-27.0177 379.315 0 158.671 109.023 0 0 -158.671 -25.026 -379.315 -56.9796 0zm-23.0054 -178.011l0 99.9885 100.999 0 0 -99.9885 -100.999 0z"/>
  </font>
  <style type="text/css">
   <![CDATA[
    @font-face { font-family:"Arial";font-variant:normal;font-weight:normal;src:url("#FontID0") format(svg)}
    .fil0 {fill:#FFF212}
    .fnt0 {font-weight:normal;font-size:346.44px;font-family:'Arial'}
   ]]>
  </style>
 </defs>
 <g id="Capa_x0020_1">
  <metadata id="CorelCorpID_0Corel-Layer"/>
  <g transform="matrix(-1 -0 0 1 310.193 122.389)">
   <text x="132" y="132"  class="fil0 fnt0">!</text>
  </g>
 </g>
</svg>
