<?xml version="1.0" encoding="UTF-8"?>
<!DOCTYPE svg PUBLIC "-//W3C//DTD SVG 1.1//EN" "http://www.w3.org/Graphics/SVG/1.1/DTD/svg11.dtd">
<!-- Creator: CorelDRAW X8 -->
<svg xmlns="http://www.w3.org/2000/svg" xml:space="preserve" width="160.867mm" height="62.6532mm" version="1.1" style="shape-rendering:geometricPrecision; text-rendering:geometricPrecision; image-rendering:optimizeQuality; fill-rule:evenodd; clip-rule:evenodd"
viewBox="0 0 16087 6265"
 xmlns:xlink="http://www.w3.org/1999/xlink">
 <defs>
  <font id="FontID1" horiz-adv-x="666" font-variant="normal" style="fill-rule:nonzero" font-style="normal" font-weight="400">
	<font-face 
		font-family="Arial">
		<font-face-src>
			<font-face-name name="Arial"/>
		</font-face-src>
	</font-face>
   <missing-glyph><path d="M0 0z"/></missing-glyph>
   <glyph unicode="A" horiz-adv-x="666" d="M-1.49349 0l274.657 716.005 104.167 0 291.506 -716.005 -107.836 0 -82.8379 217.005 -301.496 0 -77.6615 -217.005 -100.499 0zm206 294l243.99 0 -74.66 198.504c-22.5038,60.3341 -39.4977,110.17 -51.3296,149.494 -9.84543,-46.6607 -23.0113,-92.4949 -39.5122,-137.836l-78.488 -210.162z"/>
   <glyph unicode="L" horiz-adv-x="556" d="M73.007 0l0 716.005 94.9888 0 0 -632.007 352 0 0 -83.9979 -446.988 0z"/>
   <glyph unicode="C" horiz-adv-x="722" d="M586.999 251.167l95.0033 -23.9973c-19.8359,-77.8355 -55.5056,-137.01 -107.009,-177.841 -51.4891,-40.8317 -114.491,-61.3346 -188.992,-61.3346 -77.009,0 -139.663,15.6744 -188.006,47.1682 -48.3282,31.3343 -84.9984,76.835 -110.156,136.343 -25.1718,59.6671 -37.8447,123.496 -37.8447,191.834 0,74.5005 14.1664,139.489 42.6732,194.995 28.4923,55.5056 69.005,97.6713 121.495,126.497 52.5041,28.8403 110.33,43.1662 173.332,43.1662 71.673,0 131.833,-18.1684 180.509,-54.6646 48.8357,-36.4962 82.8234,-87.6664 101.992,-153.67l-93.0023 -21.9963c-16.5009,51.9966 -40.6577,90.0009 -72.166,113.665 -31.4938,23.8378 -71.1655,35.6698 -119.001,35.6698 -54.8241,0 -100.832,-13.1659 -137.662,-39.4977 -36.8297,-26.3318 -62.8281,-61.8421 -77.6615,-106.168 -15.0074,-44.5002 -22.5038,-90.3344 -22.5038,-137.503 0,-60.8271 8.83044,-113.998 26.5058,-159.325 17.6609,-45.5007 45.1672,-79.3434 82.4899,-101.833 37.3372,-22.5038 77.676,-33.6688 121.176,-33.6688 52.9971,0 97.6568,15.3264 134.327,45.8342 36.6702,30.6673 61.4941,75.994 74.5005,136.328z"/>
   <glyph unicode="N" horiz-adv-x="722" d="M75.994 0l0 716.005 97.3378 0 375.663 -562.002 0 562.002 91.0014 0 0 -716.005 -97.3233 0 -375.678 562.002 0 -562.002 -91.0014 0z"/>
   <glyph unicode="E" horiz-adv-x="666" d="M78.9954 0l0 716.005 517.008 0 0 -83.9979 -422.005 0 0 -220.007 395.006 0 0 -83.9979 -395.006 0 0 -244.004 438.999 0 0 -83.9979 -534.002 0z"/>
   <glyph unicode=" " horiz-adv-x="277" d=""/>
   <glyph unicode="S" horiz-adv-x="666" d="M45.9937 229.997l89.0004 8.00394c4.17597,-36.0032 14.0069,-65.496 29.5073,-88.6669 15.5004,-22.9968 39.4977,-41.6727 71.992,-55.9986 32.5088,-14.1664 69.179,-21.3294 109.837,-21.3294 36.1627,0 68.0045,5.32146 95.6703,16.1674 27.6658,10.8314 48.1687,25.6648 61.6681,44.4857 13.4994,18.8354 20.3289,39.3382 20.3289,61.3346 0,22.3443 -6.49595,41.8322 -19.5024,58.6666 -12.9919,16.6749 -34.4953,30.6673 -64.4955,42.1657 -19.1689,7.33695 -61.6681,19.0094 -127.498,34.8433 -65.8295,15.8339 -111.838,30.6673 -138.17,44.6597 -34.1618,18.0089 -59.4931,40.3387 -76.168,66.83 -16.8344,26.5058 -25.1573,56.3466 -25.1573,89.1744 0,36.3367 10.3239,70.165 30.8268,101.499 20.5029,31.4938 50.3291,55.3316 89.8269,71.673 39.3382,16.3269 83.1714,24.4903 131.34,24.4903 52.9971,0 99.8318,-8.49694 140.33,-25.6648 40.4982,-16.9939 71.673,-42.1657 93.4953,-75.501 21.8368,-33.1613 33.5093,-70.832 35.1768,-112.824l-91.0014 -7.00345c-4.82847,45.1672 -21.3294,79.3289 -49.5027,102.326 -28.1588,23.1708 -69.8315,34.6693 -124.83,34.6693 -57.3326,0 -99.1648,-10.4979 -125.337,-31.4938 -26.1723,-21.0104 -39.3382,-46.3417 -39.3382,-76.0085 0,-25.6648 9.33793,-46.8347 27.8398,-63.4951 18.3279,-16.5009 65.8295,-33.6688 142.839,-50.9961 76.9945,-17.5014 129.832,-32.6683 158.498,-45.6747 41.4987,-19.1689 72.3255,-43.3257 92.1614,-72.833 19.8359,-29.3333 29.6668,-63.1616 29.6668,-101.499 0,-38.1637 -10.8314,-73.8335 -32.6683,-107.502 -21.8368,-33.6688 -52.9971,-59.8266 -93.8288,-78.5025 -40.8317,-18.6614 -86.6659,-27.9993 -137.836,-27.9993 -64.6695,0 -118.827,9.51193 -162.5,28.3328 -43.8332,18.8354 -77.995,47.1682 -102.833,85.1724 -24.9978,37.8302 -38.0042,80.6629 -39.3382,128.498z"/>
   <glyph unicode="." horiz-adv-x="277" d="M91.0014 0l0 100.006 100.006 0 0 -100.006 -100.006 0z"/>
   <glyph unicode="M" horiz-adv-x="833" d="M74.9935 0l0 716.005 142.012 0 169.33 -506.844c15.6599,-47.1682 26.9988,-82.4899 34.1618,-105.994 8.16344,25.9983 20.9959,64.336 38.3377,114.839l172.331 497.999 126.831 0 0 -716.005 -91.0014 0 0 599.005 -209.002 -599.005 -85.3319 0 -206.667 609.996 0 -609.996 -91.0014 0z"/>
  </font>
  <font id="FontID0" horiz-adv-x="507" font-variant="normal" style="fill-rule:nonzero" font-style="normal" font-weight="400">
	<font-face 
		font-family="Impact">
		<font-face-src>
			<font-face-name name="Impact"/>
		</font-face-src>
	</font-face>
   <missing-glyph><path d="M0 0z"/></missing-glyph>
   <glyph unicode="A" horiz-adv-x="507" d="M395.833 791l117.667 -791 -210.166 0 -11.1677 142.001 -74.1656 0 -11.1677 -142.001 -212.834 0 104.334 791 297.499 0zm-109.167 -509c-9.83211,89.6668 -20.1663,200.667 -31.1666,333.167 -20.332,-151.998 -33.1668,-263 -38.6654,-333.167l69.832 0z"/>
   <glyph unicode="S" horiz-adv-x="517" d="M476.001 551l-191 0 0 58.5002c0,27.3336 -2.50066,44.8334 -7.33304,52.3338 -4.83397,7.4988 -12.8348,11.1661 -24.1667,11.1661 -12.3344,0 -21.6676,-4.99973 -28.0014,-15.1665 -6.33214,-9.99946 -9.49901,-25.166 -9.49901,-45.667 0,-26.3327 3.66572,-46.1658 10.833,-59.4995 6.99994,-13.1663 26.3327,-29.3338 58.1671,-48.3334 91.1666,-54.4998 148.666,-99.3332 172.332,-134.167 23.8336,-34.8323 35.6675,-90.9992 35.6675,-168.333 0,-56.3326 -6.66684,-97.8334 -19.8332,-124.666 -13.1663,-26.6673 -38.4997,-48.9996 -76.3331,-66.9999 -37.6677,-18.1661 -81.5002,-27.1662 -131.666,-27.1662 -55.0002,0 -101.834,10.4999 -140.834,31.3324 -38.8328,20.8341 -64.1661,47.3341 -76.3331,79.5 -11.9997,32.3333 -18.0003,78.1676 -18.0003,137.334l0 51.8333 191 0 0 -96.1663c0,-29.6669 2.66642,-48.6681 7.99925,-57.1678 5.33443,-8.4997 14.8334,-12.6659 28.5002,-12.6659 13.6668,0 23.8336,5.33283 30.5004,16.1658 6.66684,10.6673 9.99946,26.6673 9.99946,47.6672 0,46.5005 -6.33214,76.9993 -18.9996,91.1666 -13.1663,14.333 -45.1665,38.3339 -96.1663,71.9996 -50.9998,33.833 -84.6671,58.5002 -101.333,73.8341 -16.5005,15.3323 -30.3331,36.4995 -41.1661,63.4999 -10.8346,27.0004 -16.3348,61.4997 -16.3348,103.499 0,60.5004 7.66774,104.833 23.1674,132.833 15.4996,28.0014 40.3325,49.8347 74.8334,65.6675 34.4992,15.8327 76,23.6662 124.834,23.6662 53.3331,0 98.6654,-8.66705 136.333,-25.8322 37.5004,-17.3341 62.3332,-39.0001 74.5003,-65.3344 12.1654,-26.1669 18.3334,-70.6656 18.3334,-133.499l0 -31.334z"/>
   <glyph unicode="J" horiz-adv-x="331" d="M292 791l0 -528.666c0,-79.1669 -0.833554,-130.001 -2.50066,-152.666 -1.66711,-22.6669 -9.1659,-43.0005 -22.3338,-61.3339 -13.3321,-18.1661 -31.3324,-30.8335 -53.832,-37.8335 -22.5012,-6.99994 -56.5,-10.4999 -101.834,-10.4999l-102.5 0 0 138.501c12.167,-1.0009 20.9998,-1.50135 26.5,-1.50135 14.333,0 25.8338,3.49997 34.1661,10.6673 8.33394,7.16729 13.1663,16.0001 14.333,26.5 1.334,10.3342 2.00021,30.5004 2.00021,60.5004l0 556.333 206.001 0z"/>
  </font>
  <style type="text/css">
   <![CDATA[
    @font-face { font-family:"Arial";font-variant:normal;font-style:normal;font-weight:normal;src:url("#FontID1") format(svg)}
    @font-face { font-family:"Impact";font-variant:normal;font-style:normal;font-weight:normal;src:url("#FontID0") format(svg)}
    .fil2 {fill:#003333}
    .fil1 {fill:#006633}
    .fil3 {fill:#009933}
    .fil0 {fill:#999999}
    .fnt1 {font-weight:normal;font-size:689.66px;font-family:'Arial'}
    .fnt0 {font-weight:normal;font-size:6274.34px;font-family:'Impact'}
   ]]>
  </style>
     <clipPath id="id0">
      <path d="M1120 2797l6908 0 -1055 3376 -6909 0 1056 -3376z"/>
     </clipPath>
     <clipPath id="id1">
      <path d="M1120 2797l6908 0 -1055 3376 -6909 0 1056 -3376z"/>
     </clipPath>
 </defs>
 <g id="Capa_x0020_1">
  <metadata id="CorelCorpID_0Corel-Layer"/>
  <g id="_1753052281040">
   <g>
    <g style="clip-path:url(#id0)">
     <image x="64" y="2797" width="7964" height="3376" xlink:href="logojas_Images\logojas_ImgID1.png"/>
    </g>
   </g>
   <polygon class="fil0" points="435,2001 3571,206 6706,1076 3571,2870 6706,1076 6706,4212 3571,6006 435,5136 435,2001 3571,2870 "/>
   <g>
    <g style="clip-path:url(#id1)">
     <image x="64" y="2797" width="7964" height="3376" xlink:href="logojas_Images\logojas_ImgID2.png"/>
    </g>
   </g>
   <polygon class="fil0" points="435,2001 3571,206 6706,1076 3571,2870 6706,1076 6706,4212 3571,6006 435,5136 435,2001 3571,2870 "/>
   <text x="7395" y="5144"  class="fil1 fnt0">JAS</text>
   <text x="7433" y="6113"  class="fil2 fnt1">A</text>
   <text x="8136" y="6113"  class="fil2 fnt1">L</text>
   <text x="8763" y="6113"  class="fil2 fnt1">M</text>
   <text x="9580" y="6113"  class="fil2 fnt1">A</text>
   <text x="10283" y="6113"  class="fil2 fnt1">C</text>
   <text x="11025" y="6113"  class="fil2 fnt1">E</text>
   <text x="11728" y="6113"  class="fil2 fnt1">N</text>
   <text x="12469" y="6113"  class="fil2 fnt1">E</text>
   <text x="13172" y="6113"  class="fil2 fnt1">S </text>
   <text x="14363" y="6113"  class="fil2 fnt1">S</text>
   <text x="14936" y="6113"  class="fil2 fnt1">.</text>
   <text x="15242" y="6113"  class="fil2 fnt1">A</text>
   <rect class="fil1" transform="matrix(0.892353 -0.510662 -0 0.892353 3570.93 2870.46)" width="3514" height="3514"/>
   <rect class="fil2" transform="matrix(0.892353 0.247588 -0 0.892353 435.489 2000.52)" width="3514" height="3514"/>
   <polygon class="fil3" points="435,2001 3571,206 6706,1076 3571,2870 "/>
  </g>
 </g>
</svg>
